{
  "images" : [
    {
      "idiom" : "universal",
      "scale" : "1x",
      "filename" : "Img_Inicio_Usuario.png"
    },
    {
      "idiom" : "universal",
      "scale" : "2x",
      "filename" : "Img_Inicio_Usuario@2x.png"
    },
    {
      "idiom" : "universal",
      "scale" : "3x",
      "filename" : "Img_Inicio_Usuario@3x.png"
    }
  ],
  "info" : {
    "version" : 1,
    "author" : "xcode"
  }
}